<?xml version="1.0" encoding="UTF-8" standalone="no"?>
<!DOCTYPE svg PUBLIC "-//W3C//DTD SVG 1.1//EN" "http://www.w3.org/Graphics/SVG/1.1/DTD/svg11.dtd">
<svg 
   version="1.1" 
   xmlns="http://www.w3.org/2000/svg" 
   xmlns:xlink="http://www.w3.org/1999/xlink" 
   preserveAspectRatio="xMidYMid meet" 
   viewBox="0 0 640 640" 
   width="640" height="640">
   <defs>
      <path d="M640 320C640 496.61 496.61 640 320 640C143.39 640 0 496.61 0 320C0 143.39 143.39 0 320 0C496.61 0 640 143.39 640 320Z" id="b3ZChV6tTe"></path>
      <linearGradient id="gradientaxaKOkyqo" gradientUnits="userSpaceOnUse" x1="93" y1="547" x2="547" y2="93">
         <stop style="stop-color: #f15b2a;stop-opacity: 1" offset="0%"></stop>
         <stop style="stop-color: #e80a89;stop-opacity: 1" offset="100%"></stop>
      </linearGradient>
      <path d="M446.2 423.96C446.2 488 394.2 540 330.16 540C266.11 540 214.12 488 214.12 423.96C214.12 359.91 266.11 307.91 330.16 307.91C394.2 307.91 446.2 359.91 446.2 423.96Z" id="bgSA3Dzfh"></path>
      <path d="M154.78 532.42L346.87 93.58" id="aBLHJZqed"></path>
      <path d="M505.22 532.42L313.13 93.58" id="b3FEqzKjg2"></path>
   </defs>
   
      <g>
         <g>
            <g>
               <use xlink:href="#b3ZChV6tTe" opacity="1" fill="url(#gradientaxaKOkyqo)"></use>
            </g>
            <g>
               <use xlink:href="#bgSA3Dzfh" opacity="1" fill="#bc1c7f" fill-opacity="0"></use>
               <g>
                  <use xlink:href="#bgSA3Dzfh" opacity="1" fill-opacity="0" stroke="#ffffff" stroke-width="15" stroke-opacity="1"></use>
               </g>
            </g>
            <g>
               <g>
                  <use xlink:href="#aBLHJZqed" opacity="1" fill-opacity="0" stroke="#ffffff" stroke-width="15" stroke-opacity="1"></use>
               </g>
            </g>
            <g>
               <g>
                  <use xlink:href="#b3FEqzKjg2" opacity="1" fill-opacity="0" stroke="#ffffff" stroke-width="15" stroke-opacity="1"></use>
               </g>
            </g>
         </g>
      </g>
</svg>